{
    "name": "Admin",
    "alias": "admin",
    "description": "",
    "keywords": [],
    "priority": 0,
    "providers": [
        "Larafast\\Admin\\Providers\\AdminServiceProvider"
    ],
    "aliases": {
    },
    "files": [
        "Helpers/helper.php"
    ],
    "requires": []
}
